Q3
…
a. Filter the data to be sightings after 2010.

numbatsfilt <- numbats |>
  filter(!is.na(year)) |>
  filter(year > 2010)

b. Count the number of sightings for each day.

numbats_daily_count <- numbatsfilt |>
  group_by(day) |>
  summarize(daily_sightings = n())

numbats_daily_count

# A tibble: 204 × 2
   day        daily_sightings
   <date>               <int>
 1 2011-08-04               2
 2 2011-12-05               1
 3 2011-12-06               1
 4 2011-12-07               4
 5 2011-12-08               1
 6 2011-12-09               2
 7 2011-12-10               3
 8 2011-12-13               1
 9 2011-12-15               2
10 2011-12-19               3
# ℹ 194 more rows
…
